<?xml version="1.0" encoding="UTF-8" standalone="no"?>
<svg
   height="300px"
   width="300px"
   fill="#000000"
   xml:space="preserve"
   version="1.1"
   style="shape-rendering:geometricPrecision;text-rendering:geometricPrecision;image-rendering:optimizeQuality;"
   viewBox="0 0 290 267"
   x="0px"
   y="0px"
   fill-rule="evenodd"
   clip-rule="evenodd"
   id="svg4259"
   sodipodi:docname="contact.svg"
   inkscape:version="1.1.1 (3bf5ae0d25, 2021-09-20)"
   xmlns:inkscape="http://www.inkscape.org/namespaces/inkscape"
   xmlns:sodipodi="http://sodipodi.sourceforge.net/DTD/sodipodi-0.dtd"
   xmlns="http://www.w3.org/2000/svg"
   xmlns:svg="http://www.w3.org/2000/svg"><sodipodi:namedview
     id="namedview4261"
     pagecolor="#ffffff"
     bordercolor="#666666"
     borderopacity="1.0"
     inkscape:pageshadow="2"
     inkscape:pageopacity="0.0"
     inkscape:pagecheckerboard="0"
     showgrid="false"
     inkscape:zoom="2.0388246"
     inkscape:cx="64.497948"
     inkscape:cy="149.596"
     inkscape:window-width="1920"
     inkscape:window-height="1059"
     inkscape:window-x="0"
     inkscape:window-y="0"
     inkscape:window-maximized="1"
     inkscape:current-layer="g4257" /><defs
     id="defs4251"><style
       type="text/css"
       id="style4249">
   
    .fil0 {fill:#000000}
   
  </style></defs><g
     id="g4257"><path
       class="fil0"
       d="M180 18c-94,7 -137,120 -76,189 -21,-4 -40,-14 -54,-29l-50 21 23 -68c-25,-93 79,-167 157,-113z"
       id="path4253"
       style="fill:#c73447;fill-opacity:1" /><path
       style="fill:#041952;fill-opacity:1"
       d="m 187,27 c 57,0 103,47 103,104 0,31 -13,59 -35,78 l 13,58 -61,-34 C 143,246 85,196 85,131 85,74 131,27 187,27 Z"
       id="path4255" /><path
       style="fill:#ffffff;fill-opacity:1"
       d="m 126,100 h 123 v 6 l -62,41 -61,-41 z"
       id="path4496" /><path
       style="fill:#ffffff;fill-opacity:1"
       d="m 249,112 v 53 H 126 v -53 l 61,42 z"
       id="path4494" /></g></svg>
